%YAML 1.1
%TAG !u! tag:unity3d.com,2011:
--- !u!1 &612905852502852731
GameObject:
  m_ObjectHideFlags: 0
  m_CorrespondingSourceObject: {fileID: 0}
  m_PrefabInstance: {fileID: 0}
  m_PrefabAsset: {fileID: 0}
  serializedVersion: 6
  m_Component:
  - component: {fileID: 2547823808600036364}
  - component: {fileID: 1581013863828685392}
  - component: {fileID: 2853561667545558222}
  - component: {fileID: -7805577076668591263}
  - component: {fileID: 743166876854685742}
  m_Layer: 2
  m_Name: Stamina Data
  m_TagString: Untagged
  m_Icon: {fileID: 0}
  m_NavMeshLayer: 0
  m_StaticEditorFlags: 0
  m_IsActive: 1
--- !u!4 &2547823808600036364
Transform:
  m_ObjectHideFlags: 0
  m_CorrespondingSourceObject: {fileID: 0}
  m_PrefabInstance: {fileID: 0}
  m_PrefabAsset: {fileID: 0}
  m_GameObject: {fileID: 612905852502852731}
  serializedVersion: 2
  m_LocalRotation: {x: -0, y: -0, z: -0, w: 1}
  m_LocalPosition: {x: -0.019, y: 0.02, z: -0.121}
  m_LocalScale: {x: 1, y: 1, z: 1}
  m_ConstrainProportionsScale: 0
  m_Children: []
  m_Father: {fileID: 0}
  m_LocalEulerAnglesHint: {x: 0, y: 0, z: 0}
--- !u!114 &1581013863828685392
MonoBehaviour:
  m_ObjectHideFlags: 0
  m_CorrespondingSourceObject: {fileID: 0}
  m_PrefabInstance: {fileID: 0}
  m_PrefabAsset: {fileID: 0}
  m_GameObject: {fileID: 612905852502852731}
  m_Enabled: 1
  m_EditorHideFlags: 0
  m_Script: {fileID: 11500000, guid: 9c40057955ac3324f9b900fad19f1651, type: 3}
  m_Name: 
  m_EditorClassIdentifier: 
  Delayed:
    UseConstant: 1
    ConstantValue: 0
    Variable: {fileID: 0}
  RepeatTime:
    UseConstant: 1
    ConstantValue: 0
    Variable: {fileID: 0}
  Repeat: 0
  onEnable:
    m_PersistentCalls:
      m_Calls:
      - m_Target: {fileID: 11400000, guid: 7cf722dd04e074d4eb5c291280cdd5aa, type: 2}
        m_TargetAssemblyTypeName: 
        m_MethodName: Invoke
        m_Mode: 2
        m_Arguments:
          m_ObjectArgument: {fileID: 2547823808600036364}
          m_ObjectArgumentAssemblyTypeName: UnityEngine.Transform, UnityEngine
          m_IntArgument: 0
          m_FloatArgument: 0
          m_StringArgument: 
          m_BoolArgument: 0
        m_CallState: 2
  Description: Notify the UI, that the position of the stamina Icon, is this gameobject
  ShowDescription: 1
--- !u!114 &2853561667545558222
MonoBehaviour:
  m_ObjectHideFlags: 0
  m_CorrespondingSourceObject: {fileID: 0}
  m_PrefabInstance: {fileID: 0}
  m_PrefabAsset: {fileID: 0}
  m_GameObject: {fileID: 612905852502852731}
  m_Enabled: 1
  m_EditorHideFlags: 0
  m_Script: {fileID: 11500000, guid: 7878c94402156f54bac49f74151e0507, type: 3}
  m_Name: 
  m_EditorClassIdentifier: 
  ShowEvents: 1
  ID:
    UseConstant: 1
    ConstantValue: 0
    Variable: {fileID: 0}
  Auto: 1
  InvokeOnEnable: 1
  Description: 'Stamina Logics (True : Sprint is Enable)

    - Degenerate the Stamina
    Stat when Sprint is activated

    - Shows the Stamina UI'
  ShowDescription: 1
  debug: 0
  value:
    UseConstant: 1
    ConstantValue: 0
    Variable: {fileID: 0}
  invert: 0
  OnValueChanged:
    m_PersistentCalls:
      m_Calls:
      - m_Target: {fileID: 11400000, guid: e5d916c64bda38744b0188f0294c69ae, type: 2}
        m_TargetAssemblyTypeName: 
        m_MethodName: Invoke
        m_Mode: 0
        m_Arguments:
          m_ObjectArgument: {fileID: 0}
          m_ObjectArgumentAssemblyTypeName: UnityEngine.Object, UnityEngine
          m_IntArgument: 0
          m_FloatArgument: 0
          m_StringArgument: 
          m_BoolArgument: 0
        m_CallState: 2
  OnTrue:
    m_PersistentCalls:
      m_Calls:
      - m_Target: {fileID: 11400000, guid: 7cf722dd04e074d4eb5c291280cdd5aa, type: 2}
        m_TargetAssemblyTypeName: 
        m_MethodName: Invoke
        m_Mode: 6
        m_Arguments:
          m_ObjectArgument: {fileID: 0}
          m_ObjectArgumentAssemblyTypeName: UnityEngine.Object, UnityEngine
          m_IntArgument: 0
          m_FloatArgument: 0
          m_StringArgument: 
          m_BoolArgument: 1
        m_CallState: 2
      - m_Target: {fileID: -7805577076668591263}
        m_TargetAssemblyTypeName: MalbersAnimations.Reactions.MReactions, MalbersAnimations
        m_MethodName: React
        m_Mode: 1
        m_Arguments:
          m_ObjectArgument: {fileID: 0}
          m_ObjectArgumentAssemblyTypeName: UnityEngine.Object, UnityEngine
          m_IntArgument: 0
          m_FloatArgument: 0
          m_StringArgument: 
          m_BoolArgument: 1
        m_CallState: 2
  OnFalse:
    m_PersistentCalls:
      m_Calls:
      - m_Target: {fileID: 743166876854685742}
        m_TargetAssemblyTypeName: MalbersAnimations.Reactions.MReactions, MalbersAnimations
        m_MethodName: React
        m_Mode: 1
        m_Arguments:
          m_ObjectArgument: {fileID: 0}
          m_ObjectArgumentAssemblyTypeName: UnityEngine.Object, UnityEngine
          m_IntArgument: 0
          m_FloatArgument: 0
          m_StringArgument: 
          m_BoolArgument: 0
        m_CallState: 2
--- !u!114 &-7805577076668591263
MonoBehaviour:
  m_ObjectHideFlags: 0
  m_CorrespondingSourceObject: {fileID: 0}
  m_PrefabInstance: {fileID: 0}
  m_PrefabAsset: {fileID: 0}
  m_GameObject: {fileID: 612905852502852731}
  m_Enabled: 1
  m_EditorHideFlags: 0
  m_Script: {fileID: 11500000, guid: 2fdecb89e10038244b87c2a5325e6423, type: 3}
  m_Name: 
  m_EditorClassIdentifier: 
  FindTarget: 0
  Target: {fileID: 0}
  ReactOnEnable: 0
  ReactOnDisable: 0
  reaction:
    rid: 5723820122946666501
  references:
    version: 2
    RefIds:
    - rid: 5723820122946666501
      type: {class: StatReaction, ns: MalbersAnimations.Reactions, asm: MalbersAnimations}
      data:
        Active: 1
        useLocalTarget: 0
        LocalTarget: {fileID: 0}
        delay: 0
        modifiers:
        - ID: {fileID: 11400000, guid: 8f96533110b305a4792c37a844108d26, type: 2}
          modify: 6
          MinValue:
            UseConstant: 1
            ConstantValue: 10
            Variable: {fileID: 0}
          MaxValue:
            UseConstant: 1
            ConstantValue: 10
            Variable: {fileID: 0}
          enable:
            UseConstant: 0
            ConstantValue: 0
            Variable: {fileID: 0}
--- !u!114 &743166876854685742
MonoBehaviour:
  m_ObjectHideFlags: 0
  m_CorrespondingSourceObject: {fileID: 0}
  m_PrefabInstance: {fileID: 0}
  m_PrefabAsset: {fileID: 0}
  m_GameObject: {fileID: 612905852502852731}
  m_Enabled: 1
  m_EditorHideFlags: 0
  m_Script: {fileID: 11500000, guid: 2fdecb89e10038244b87c2a5325e6423, type: 3}
  m_Name: 
  m_EditorClassIdentifier: 
  FindTarget: 1
  Target: {fileID: 0}
  ReactOnEnable: 0
  ReactOnDisable: 0
  reaction:
    rid: 5723820122946666501
  references:
    version: 2
    RefIds:
    - rid: 5723820122946666501
      type: {class: StatReaction, ns: MalbersAnimations.Reactions, asm: MalbersAnimations}
      data:
        Active: 1
        useLocalTarget: 0
        LocalTarget: {fileID: 0}
        delay: 0
        modifiers:
        - ID: {fileID: 11400000, guid: 8f96533110b305a4792c37a844108d26, type: 2}
          modify: 7
          MinValue:
            UseConstant: 1
            ConstantValue: 5
            Variable: {fileID: 0}
          MaxValue:
            UseConstant: 1
            ConstantValue: 5
            Variable: {fileID: 0}
          enable:
            UseConstant: 0
            ConstantValue: 0
            Variable: {fileID: 0}
