%YAML 1.1
%TAG !u! tag:unity3d.com,2011:
--- !u!114 &-8663735572863561537
MonoBehaviour:
  m_ObjectHideFlags: 0
  m_CorrespondingSourceObject: {fileID: 0}
  m_PrefabInstance: {fileID: 0}
  m_PrefabAsset: {fileID: 0}
  m_GameObject: {fileID: 0}
  m_Enabled: 1
  m_EditorHideFlags: 0
  m_Script: {fileID: 11500000, guid: 6a2aad0ba16551545b4f0aa57d8a5023, type: 3}
  m_Name: T_Strafe
  m_EditorClassIdentifier: 
  active: 1
  Description: Enable/Disable Strafing on the Animal Controller
  MessageID:
    UseConstant: 1
    ConstantValue: 0
    Variable: {fileID: 0}
  UpdateInterval: 0.2
  WaitForPreviousTask: 0
  affect: 0
  strafe:
    UseConstant: 1
    ConstantValue: 1
    Variable: {fileID: 0}
  TargetIsStrafeTarget: 1
  SelfIsStrafeTarget: 0
  NewStrafeTarget: {fileID: 0}
  showTransform: 0
  showSelf: 1
  showTarget: 0
--- !u!114 &-7062233854891923978
MonoBehaviour:
  m_ObjectHideFlags: 0
  m_CorrespondingSourceObject: {fileID: 0}
  m_PrefabInstance: {fileID: 0}
  m_PrefabAsset: {fileID: 0}
  m_GameObject: {fileID: 0}
  m_Enabled: 1
  m_EditorHideFlags: 0
  m_Script: {fileID: 11500000, guid: 1a2106e56718a0c43ba1182c65e3aa2c, type: 3}
  m_Name: T_Weapon Aim
  m_EditorClassIdentifier: 
  active: 0
  Description: 'Use common Methods of the Weapon Manager to play on the '
  MessageID:
    UseConstant: 1
    ConstantValue: 0
    Variable: {fileID: 0}
  UpdateInterval: 0.2
  WaitForPreviousTask: 0
  near: 0
  Actions: 4
  Weapon: {fileID: 0}
  HolsterID: {fileID: 0}
  AimValue: 1
  IgnoreDrawStore: 0
--- !u!114 &11400000
MonoBehaviour:
  m_ObjectHideFlags: 0
  m_CorrespondingSourceObject: {fileID: 0}
  m_PrefabInstance: {fileID: 0}
  m_PrefabAsset: {fileID: 0}
  m_GameObject: {fileID: 0}
  m_Enabled: 1
  m_EditorHideFlags: 0
  m_Script: {fileID: 11500000, guid: 9e33e187dc72d4a48aaede99913c6393, type: 3}
  m_Name: 03 Attack with Ranged
  m_EditorClassIdentifier: 
  ID:
    UseConstant: 1
    ConstantValue: 0
    Variable: {fileID: 0}
  tasks:
  - {fileID: 7032282287093825148}
  - {fileID: 8451834034410962492}
  - {fileID: -8663735572863561537}
  - {fileID: 6214756131493503968}
  - {fileID: -7062233854891923978}
  - {fileID: 2074257845838260195}
  transitions: []
  GizmoStateColor: {r: 0.5, g: 0.5, b: 0.5, a: 1}
  CreateTaskAsset: 1
  CreateDecisionAsset: 1
  TasksIndex: 2
  DecisionIndex: -1
--- !u!114 &2074257845838260195
MonoBehaviour:
  m_ObjectHideFlags: 0
  m_CorrespondingSourceObject: {fileID: 0}
  m_PrefabInstance: {fileID: 0}
  m_PrefabAsset: {fileID: 0}
  m_GameObject: {fileID: 0}
  m_Enabled: 1
  m_EditorHideFlags: 0
  m_Script: {fileID: 11500000, guid: 1a2106e56718a0c43ba1182c65e3aa2c, type: 3}
  m_Name: T_WeaponAttack
  m_EditorClassIdentifier: 
  active: 1
  Description: 'Use common Methods of the Weapon Manager to play on the '
  MessageID:
    UseConstant: 1
    ConstantValue: 0
    Variable: {fileID: 0}
  UpdateInterval: 0.2
  WaitForPreviousTask: 0
  near: 0
  Actions: 5
  Weapon: {fileID: 0}
  HolsterID: {fileID: 0}
  AimValue: 1
  IgnoreDrawStore: 0
--- !u!114 &6214756131493503968
MonoBehaviour:
  m_ObjectHideFlags: 0
  m_CorrespondingSourceObject: {fileID: 0}
  m_PrefabInstance: {fileID: 0}
  m_PrefabAsset: {fileID: 0}
  m_GameObject: {fileID: 0}
  m_Enabled: 1
  m_EditorHideFlags: 0
  m_Script: {fileID: 11500000, guid: 5aaefcc8cb0c31046bdac1700fd93837, type: 3}
  m_Name: T_SetLookAtTask
  m_EditorClassIdentifier: 
  active: 1
  Description: 'Find a child gameObject with the name given on the Target and set
    it as the Target for the Look At and the Aim Component on the Animal '
  MessageID:
    UseConstant: 1
    ConstantValue: 0
    Variable: {fileID: 0}
  UpdateInterval: 0.2
  WaitForPreviousTask: 0
  SetAimOn: 0
  LookAtTargetS: 0
  LookAtTargetT: 0
  TargetVar: {fileID: 0}
  UseTag: 0
  BoneName: Head
  tag: {fileID: 0}
  DisableOnExit: 1
  showTransformVar: 0
--- !u!114 &7032282287093825148
MonoBehaviour:
  m_ObjectHideFlags: 0
  m_CorrespondingSourceObject: {fileID: 0}
  m_PrefabInstance: {fileID: 0}
  m_PrefabAsset: {fileID: 0}
  m_GameObject: {fileID: 0}
  m_Enabled: 1
  m_EditorHideFlags: 0
  m_Script: {fileID: 11500000, guid: 20de7ec569e280e4dbc951b31fe6319e, type: 3}
  m_Name: T_MoveStopTask
  m_EditorClassIdentifier: 
  active: 1
  Description: Type Description Here
  MessageID:
    UseConstant: 1
    ConstantValue: 0
    Variable: {fileID: 0}
  UpdateInterval: 0.2
  WaitForPreviousTask: 0
  task: 7
  distance:
    UseConstant: 1
    ConstantValue: 10
    Variable: {fileID: 0}
  distanceThreshold:
    UseConstant: 1
    ConstantValue: 1
    Variable: {fileID: 0}
  stoppingDistance:
    UseConstant: 1
    ConstantValue: 0.5
    Variable: {fileID: 0}
  slowingDistance:
    UseConstant: 1
    ConstantValue: 0
    Variable: {fileID: 0}
  direction: 0
  arcsCount: 12
  LookAtTarget: 0
  FleeForever: 1
  debugColor: {r: 0.5, g: 0.5, b: 0.5, a: 0.25}
--- !u!114 &8451834034410962492
MonoBehaviour:
  m_ObjectHideFlags: 0
  m_CorrespondingSourceObject: {fileID: 0}
  m_PrefabInstance: {fileID: 0}
  m_PrefabAsset: {fileID: 0}
  m_GameObject: {fileID: 0}
  m_Enabled: 1
  m_EditorHideFlags: 0
  m_Script: {fileID: 11500000, guid: 1a2106e56718a0c43ba1182c65e3aa2c, type: 3}
  m_Name: T_Weapon Draw Bow
  m_EditorClassIdentifier: 
  active: 1
  Description: 'Use common Methods of the Weapon Manager to play on the '
  MessageID:
    UseConstant: 1
    ConstantValue: 0
    Variable: {fileID: 0}
  UpdateInterval: 0.2
  WaitForPreviousTask: 0
  near: 0
  Actions: 0
  Weapon: {fileID: 0}
  HolsterID: {fileID: 11400000, guid: 31941dcdef3462d4c959c444d5b4ad1b, type: 2}
  AimValue: 1
  IgnoreDrawStore: 0
