%YAML 1.1
%TAG !u! tag:unity3d.com,2011:
--- !u!78 &1
TagManager:
  serializedVersion: 2
  tags:
  - Stair
  - WallRun
  - Climb
  - Fly
  - Animal
  - Water
  - Ball
  layers:
  - Default
  - TransparentFX
  - Ignore Raycast
  - 
  - Water
  - UI
  - AttackCollider
  - 
  - 
  - 
  - 
  - 
  - 
  - 
  - 
  - BodyPart
  - 
  - 
  - 
  - 
  - Animal
  - 
  - 
  - 
  - 
  - 
  - Enemy
  - MovingPlatform
  - VisualEffect
  - Overlay
  - SubCharacter
  - Character
  m_SortingLayers:
  - name: Default
    uniqueID: 0
    locked: 0
